﻿productCode,customerName,opinion,stars
1,Anita Clutten,excecelente producto,4
1,Haley Dobbison,me encanto,5
1,Florida Swatridge,lo recomiendo,4
2,Garik Spata,no me gusto para nada,2
2,Brigid Manktelow,me gusta un poco,3
2,Ernesto Bohey,no me gusto para nada,1
3,Hank Aldiss,podrian mejorarlo,1
3,Elisha Stovine,lo recomiendo,4
3,Krishna Estick,no me gusto para nada,2
4,Heindrick Eilles,me gusta un poco,3
4,Rupert Cutler,no me gusto para nada,2
4,Booth Wathall,me gusta un poco,3
5,Alvinia Cassell,no me gusto para nada,1
5,Piper West-Frimley,podrian mejorarlo,1
5,Costa MacKegg,lo recomiendo,4
6,Rodd Coton,no me gusto para nada,2
6,Gusty McLeod,me gusta un poco,3
6,Huntington Foat,no me gusto para nada,2
6,Cammie Drains,me gusta un poco,3
6,Vyky Albin,no me gusto para nada,1
