﻿productCode,customerName,opinion,stars
1,Anita Clutten PROD,excecelente producto,4
1,Haley Dobbison PROD,me encanto,5
1,Florida Swatridge PROD,lo recomiendo,4
2,Garik Spata PROD,no me gusto para nada,2
2,Brigid Manktelow PROD,me gusta un poco,3
2,Ernesto Bohey PROD,no me gusto para nada,1
3,Hank Aldiss PROD,podrian mejorarlo,1
3,Elisha Stovine PROD,lo recomiendo,4
3,Krishna Estick PROD,no me gusto para nada,2
4,Heindrick Eilles PROD,me gusta un poco,3
4,Rupert Cutler PROD,no me gusto para nada,2
4,Booth Wathall PROD,me gusta un poco,3
5,Alvinia Cassell PROD,no me gusto para nada,1
5,Piper West-Frimley PROD,podrian mejorarlo,1
5,Costa MacKegg PROD,lo recomiendo,4
6,Rodd Coton PROD,no me gusto para nada,2
6,Gusty McLeod PROD,me gusta un poco,3
6,Huntington Foat PROD,no me gusto para nada,2
6,Cammie Drains PROD,me gusta un poco,3
6,Vyky Albin PROD,no me gusto para nada,1